DC-Build-Header: ruby-bluecloth 2.2.0-6 / 2016-07-06 21:28:52 +0000
DC-Task: source:ruby-bluecloth version:2.2.0-6 architecture:any chroot:unstable esttime:43 logfile:/tmp/ruby-bluecloth_2.2.0-6_unstable_reb2.log modes:
DC-Sbuild-call: su user -c 'sbuild -n -A -s --force-orig-source --apt-update -d unstable -v  ruby-bluecloth_2.2.0-6'
sbuild (Debian sbuild) 0.65.2 (24 Mar 2015) on ip-172-31-7-162.eu-central-1.compute.internal

╔══════════════════════════════════════════════════════════════════════════════╗
║ ruby-bluecloth 2.2.0-6 (amd64)                             06 Jul 2016 21:28 ║
╚══════════════════════════════════════════════════════════════════════════════╝

Package: ruby-bluecloth
Version: 2.2.0-6
Source Version: 2.2.0-6
Distribution: unstable
Machine Architecture: amd64
Host Architecture: amd64
Build Architecture: amd64

I: NOTICE: Log filtering will replace 'build/ruby-bluecloth-pTqJ4z/ruby-bluecloth-2.2.0' with '«PKGBUILDDIR»'
I: NOTICE: Log filtering will replace 'build/ruby-bluecloth-pTqJ4z' with '«BUILDDIR»'
I: NOTICE: Log filtering will replace 'var/lib/schroot/mount/unstable-amd64-sbuild-197bf0dc-c9d6-4a86-9ea5-065be9b2bdc3' with '«CHROOT»'

┌──────────────────────────────────────────────────────────────────────────────┐
│ Update chroot                                                                │
└──────────────────────────────────────────────────────────────────────────────┘

Get:1 http://127.0.0.1:9999/debian unstable InRelease [209 kB]
Get:2 http://127.0.0.1:9999/debian unstable/main Sources.diff/Index [27.9 kB]
Get:3 http://127.0.0.1:9999/debian unstable/main amd64 Packages.diff/Index [27.9 kB]
Get:4 http://127.0.0.1:9999/debian unstable/main Translation-en.diff/Index [27.9 kB]
Get:5 http://127.0.0.1:9999/debian unstable/main Sources 2016-07-06-1505.17.pdiff [7201 B]
Get:6 http://127.0.0.1:9999/debian unstable/main amd64 Packages 2016-07-06-1505.17.pdiff [9176 B]
Get:5 http://127.0.0.1:9999/debian unstable/main Sources 2016-07-06-1505.17.pdiff [7201 B]
Get:6 http://127.0.0.1:9999/debian unstable/main amd64 Packages 2016-07-06-1505.17.pdiff [9176 B]
Get:7 http://127.0.0.1:9999/debian unstable/main Translation-en 2016-07-06-1505.17.pdiff [866 B]
Get:7 http://127.0.0.1:9999/debian unstable/main Translation-en 2016-07-06-1505.17.pdiff [866 B]
Fetched 310 kB in 0s (311 kB/s)
Reading package lists...
W: No sandbox user '_apt' on the system, can not drop privileges
Reading package lists...
Building dependency tree...
Reading state information...
Calculating upgrade...
The following packages will be upgraded:
  dash linux-libc-dev
2 upgraded, 0 newly installed, 0 to remove and 0 not upgraded.
Need to get 1252 kB of archives.
After this operation, 2048 B of additional disk space will be used.
Get:1 http://127.0.0.1:9999/debian unstable/main amd64 dash amd64 0.5.8-2.3 [108 kB]
Get:2 http://127.0.0.1:9999/debian unstable/main amd64 linux-libc-dev amd64 4.6.3-1 [1144 kB]
debconf: delaying package configuration, since apt-utils is not installed
Fetched 1252 kB in 0s (26.6 MB/s)
(Reading database ... (Reading database ... 5%(Reading database ... 10%(Reading database ... 15%(Reading database ... 20%(Reading database ... 25%(Reading database ... 30%(Reading database ... 35%(Reading database ... 40%(Reading database ... 45%(Reading database ... 50%(Reading database ... 55%(Reading database ... 60%(Reading database ... 65%(Reading database ... 70%(Reading database ... 75%(Reading database ... 80%(Reading database ... 85%(Reading database ... 90%(Reading database ... 95%(Reading database ... 100%(Reading database ... 11521 files and directories currently installed.)
Preparing to unpack .../dash_0.5.8-2.3_amd64.deb ...
Unpacking dash (0.5.8-2.3) over (0.5.8-2.2) ...
Setting up dash (0.5.8-2.3) ...
(Reading database ... (Reading database ... 5%(Reading database ... 10%(Reading database ... 15%(Reading database ... 20%(Reading database ... 25%(Reading database ... 30%(Reading database ... 35%(Reading database ... 40%(Reading database ... 45%(Reading database ... 50%(Reading database ... 55%(Reading database ... 60%(Reading database ... 65%(Reading database ... 70%(Reading database ... 75%(Reading database ... 80%(Reading database ... 85%(Reading database ... 90%(Reading database ... 95%(Reading database ... 100%(Reading database ... 11521 files and directories currently installed.)
Preparing to unpack .../linux-libc-dev_4.6.3-1_amd64.deb ...
Unpacking linux-libc-dev:amd64 (4.6.3-1) over (4.6.2-2) ...
Setting up linux-libc-dev:amd64 (4.6.3-1) ...
W: No sandbox user '_apt' on the system, can not drop privileges

┌──────────────────────────────────────────────────────────────────────────────┐
│ Fetch source files                                                           │
└──────────────────────────────────────────────────────────────────────────────┘


Check APT
─────────

Checking available source versions...

Download source files with APT
──────────────────────────────

Reading package lists...
NOTICE: 'ruby-bluecloth' packaging is maintained in the 'Git' version control system at:
git://anonscm.debian.org/pkg-ruby-extras/ruby-bluecloth.git
Please use:
git clone git://anonscm.debian.org/pkg-ruby-extras/ruby-bluecloth.git
to retrieve the latest (possibly unreleased) updates to the package.
Need to get 99.6 kB of source archives.
Get:1 http://127.0.0.1:9999/debian unstable/main ruby-bluecloth 2.2.0-6 (dsc) [1856 B]
Get:2 http://127.0.0.1:9999/debian unstable/main ruby-bluecloth 2.2.0-6 (tar) [90.5 kB]
Get:3 http://127.0.0.1:9999/debian unstable/main ruby-bluecloth 2.2.0-6 (diff) [7232 B]
Fetched 99.6 kB in 0s (707 kB/s)
Download complete and in download only mode

Check architectures
───────────────────


Check dependencies
──────────────────

Merged Build-Depends: build-essential, fakeroot
Filtered Build-Depends: build-essential, fakeroot
dpkg-deb: building package 'sbuild-build-depends-core-dummy' in '/«BUILDDIR»/resolver-fjMWHq/apt_archive/sbuild-build-depends-core-dummy.deb'.
OK
Get:1 file:/«BUILDDIR»/resolver-fjMWHq/apt_archive ./ InRelease
Ign:1 file:/«BUILDDIR»/resolver-fjMWHq/apt_archive ./ InRelease
Get:2 file:/«BUILDDIR»/resolver-fjMWHq/apt_archive ./ Release [2119 B]
Get:2 file:/«BUILDDIR»/resolver-fjMWHq/apt_archive ./ Release [2119 B]
Get:3 file:/«BUILDDIR»/resolver-fjMWHq/apt_archive ./ Release.gpg [299 B]
Get:3 file:/«BUILDDIR»/resolver-fjMWHq/apt_archive ./ Release.gpg [299 B]
Get:4 file:/«BUILDDIR»/resolver-fjMWHq/apt_archive ./ Sources [208 B]
Get:5 file:/«BUILDDIR»/resolver-fjMWHq/apt_archive ./ Packages [526 B]
Reading package lists...
W: No sandbox user '_apt' on the system, can not drop privileges
W: file:///«BUILDDIR»/resolver-fjMWHq/apt_archive/./Release.gpg: Signature by key 521D0A1C6D665FC87F4D19FACF4584DDDCDD1649 uses weak digest algorithm (SHA1)
Reading package lists...

┌──────────────────────────────────────────────────────────────────────────────┐
│ Install core build dependencies (apt-based resolver)                         │
└──────────────────────────────────────────────────────────────────────────────┘

Installing build dependencies
Reading package lists...
Building dependency tree...
Reading state information...
The following NEW packages will be installed:
  sbuild-build-depends-core-dummy
0 upgraded, 1 newly installed, 0 to remove and 0 not upgraded.
Need to get 0 B/776 B of archives.
After this operation, 0 B of additional disk space will be used.
Get:1 file:/«BUILDDIR»/resolver-fjMWHq/apt_archive ./ sbuild-build-depends-core-dummy 0.invalid.0 [776 B]
debconf: delaying package configuration, since apt-utils is not installed
Selecting previously unselected package sbuild-build-depends-core-dummy.
(Reading database ... (Reading database ... 5%(Reading database ... 10%(Reading database ... 15%(Reading database ... 20%(Reading database ... 25%(Reading database ... 30%(Reading database ... 35%(Reading database ... 40%(Reading database ... 45%(Reading database ... 50%(Reading database ... 55%(Reading database ... 60%(Reading database ... 65%(Reading database ... 70%(Reading database ... 75%(Reading database ... 80%(Reading database ... 85%(Reading database ... 90%(Reading database ... 95%(Reading database ... 100%(Reading database ... 11521 files and directories currently installed.)
Preparing to unpack .../sbuild-build-depends-core-dummy.deb ...
Unpacking sbuild-build-depends-core-dummy (0.invalid.0) ...
Setting up sbuild-build-depends-core-dummy (0.invalid.0) ...
W: No sandbox user '_apt' on the system, can not drop privileges
Merged Build-Depends: base-files, base-passwd, bash, bsdutils, coreutils, dash, debianutils, diffutils, dpkg, e2fsprogs, findutils, grep, gzip, hostname, init, libc-bin, login, mount, ncurses-base, ncurses-bin, perl-base, sed, sysvinit-utils, tar, util-linux, libc6-dev | libc-dev, gcc (>= 4:5.3), g++ (>= 4:5.3), make, dpkg-dev (>= 1.17.11), debhelper (>= 7.0.50~), gem2deb (>= 0.5.0~), libmarkdown2-dev (>= 2.1~), ruby-rspec (>= 3~)
Filtered Build-Depends: base-files, base-passwd, bash, bsdutils, coreutils, dash, debianutils, diffutils, dpkg, e2fsprogs, findutils, grep, gzip, hostname, init, libc-bin, login, mount, ncurses-base, ncurses-bin, perl-base, sed, sysvinit-utils, tar, util-linux, libc6-dev, gcc (>= 4:5.3), g++ (>= 4:5.3), make, dpkg-dev (>= 1.17.11), debhelper (>= 7.0.50~), gem2deb (>= 0.5.0~), libmarkdown2-dev (>= 2.1~), ruby-rspec (>= 3~)
dpkg-deb: building package 'sbuild-build-depends-ruby-bluecloth-dummy' in '/«BUILDDIR»/resolver-garlWh/apt_archive/sbuild-build-depends-ruby-bluecloth-dummy.deb'.
OK
Get:1 file:/«BUILDDIR»/resolver-garlWh/apt_archive ./ InRelease
Ign:1 file:/«BUILDDIR»/resolver-garlWh/apt_archive ./ InRelease
Get:2 file:/«BUILDDIR»/resolver-garlWh/apt_archive ./ Release [2119 B]
Get:2 file:/«BUILDDIR»/resolver-garlWh/apt_archive ./ Release [2119 B]
Get:3 file:/«BUILDDIR»/resolver-garlWh/apt_archive ./ Release.gpg [299 B]
Get:3 file:/«BUILDDIR»/resolver-garlWh/apt_archive ./ Release.gpg [299 B]
Get:4 file:/«BUILDDIR»/resolver-garlWh/apt_archive ./ Sources [473 B]
Get:5 file:/«BUILDDIR»/resolver-garlWh/apt_archive ./ Packages [733 B]
Reading package lists...
W: No sandbox user '_apt' on the system, can not drop privileges
W: file:///«BUILDDIR»/resolver-garlWh/apt_archive/./Release.gpg: Signature by key 521D0A1C6D665FC87F4D19FACF4584DDDCDD1649 uses weak digest algorithm (SHA1)
Reading package lists...

┌──────────────────────────────────────────────────────────────────────────────┐
│ Install ruby-bluecloth build dependencies (apt-based resolver)               │
└──────────────────────────────────────────────────────────────────────────────┘

Installing build dependencies
Reading package lists...
Building dependency tree...
Reading state information...
The following additional packages will be installed:
  autoconf automake autopoint autotools-dev bsdmainutils ca-certificates
  debhelper devscripts dh-autoreconf dh-python dh-strip-nondeterminism dmsetup
  file gem2deb gem2deb-test-runner gettext gettext-base groff-base init
  intltool-debian libapparmor1 libarchive-zip-perl libbsd0 libcap2 libcap2-bin
  libcroco3 libcryptsetup4 libdevmapper1.02.1 libexpat1 libffi6
  libfile-stripnondeterminism-perl libglib2.0-0 libgmp-dev libgmpxx4ldbl
  libicu55 libidn11 libkmod2 libmagic1 libmarkdown2 libmarkdown2-dev libmpdec2
  libpipeline1 libpython3-stdlib libpython3.5-minimal libpython3.5-stdlib
  libruby2.3 libseccomp2 libsigsegv2 libsqlite3-0 libssl1.0.2 libtimedate-perl
  libtool libunistring0 libxml2 libyaml-0-2 m4 man-db mime-support openssl
  po-debconf python3 python3-minimal python3.5 python3.5-minimal rake ruby
  ruby-all-dev ruby-did-you-mean ruby-diff-lcs ruby-minitest ruby-net-telnet
  ruby-power-assert ruby-rspec ruby-rspec-core ruby-rspec-expectations
  ruby-rspec-mocks ruby-rspec-support ruby-setup ruby-test-unit
  ruby-thread-order ruby2.3 ruby2.3-dev rubygems-integration systemd
  systemd-sysv
Suggested packages:
  autoconf-archive gnu-standards autoconf-doc wamerican | wordlist whois
  vacation dh-make bsd-mailx | mailx cvs-buildpackage diffoscope devscripts-el
  dose-extra gnuplot libauthen-sasl-perl libfile-desktopentry-perl
  libnet-smtp-ssl-perl libterm-size-perl libyaml-syck-perl mozilla-devscripts
  mutt ssh-client svn-buildpackage w3m gettext-doc libasprintf-dev
  libgettextpo-dev groff gmp-doc libgmp10-doc libmpfr-dev libtool-doc gfortran
  | fortran95-compiler gcj-jdk less www-browser libmail-box-perl python3-doc
  python3-tk python3-venv python3.5-venv python3.5-doc binfmt-support ri
  ruby-dev bundler systemd-ui systemd-container policykit-1
Recommended packages:
  at dctrl-tools dput | dupload libdistro-info-perl libencode-locale-perl
  liburi-perl libwww-perl licensecheck lintian patchutils python3-debian
  python3-magic strace unzip wdiff wget | curl debian-keyring equivs
  liblwp-protocol-https-perl libsoap-lite-perl apt-file curl | wget | lynx-cur
  libpam-cap libglib2.0-data shared-mime-info xdg-user-dirs libltdl-dev
  xml-core libmail-sendmail-perl zip fonts-lato libjs-jquery libpam-systemd
  dbus
The following NEW packages will be installed:
  autoconf automake autopoint autotools-dev bsdmainutils ca-certificates
  debhelper devscripts dh-autoreconf dh-python dh-strip-nondeterminism dmsetup
  file gem2deb gem2deb-test-runner gettext gettext-base groff-base init
  intltool-debian libapparmor1 libarchive-zip-perl libbsd0 libcap2 libcap2-bin
  libcroco3 libcryptsetup4 libdevmapper1.02.1 libexpat1 libffi6
  libfile-stripnondeterminism-perl libglib2.0-0 libgmp-dev libgmpxx4ldbl
  libicu55 libidn11 libkmod2 libmagic1 libmarkdown2 libmarkdown2-dev libmpdec2
  libpipeline1 libpython3-stdlib libpython3.5-minimal libpython3.5-stdlib
  libruby2.3 libseccomp2 libsigsegv2 libsqlite3-0 libssl1.0.2 libtimedate-perl
  libtool libunistring0 libxml2 libyaml-0-2 m4 man-db mime-support openssl
  po-debconf python3 python3-minimal python3.5 python3.5-minimal rake ruby
  ruby-all-dev ruby-did-you-mean ruby-diff-lcs ruby-minitest ruby-net-telnet
  ruby-power-assert ruby-rspec ruby-rspec-core ruby-rspec-expectations
  ruby-rspec-mocks ruby-rspec-support ruby-setup ruby-test-unit
  ruby-thread-order ruby2.3 ruby2.3-dev rubygems-integration
  sbuild-build-depends-ruby-bluecloth-dummy systemd systemd-sysv
0 upgraded, 86 newly installed, 0 to remove and 0 not upgraded.
Need to get 37.1 MB/37.1 MB of archives.
After this operation, 135 MB of additional disk space will be used.
Get:1 file:/«BUILDDIR»/resolver-garlWh/apt_archive ./ sbuild-build-depends-ruby-bluecloth-dummy 0.invalid.0 [982 B]
Get:2 http://127.0.0.1:9999/debian unstable/main amd64 libapparmor1 amd64 2.10.95-4 [75.0 kB]
Get:3 http://127.0.0.1:9999/debian unstable/main amd64 libcap2 amd64 1:2.25-1 [16.8 kB]
Get:4 http://127.0.0.1:9999/debian unstable/main amd64 dmsetup amd64 2:1.02.127-1 [106 kB]
Get:5 http://127.0.0.1:9999/debian unstable/main amd64 libdevmapper1.02.1 amd64 2:1.02.127-1 [181 kB]
Get:6 http://127.0.0.1:9999/debian unstable/main amd64 libcryptsetup4 amd64 2:1.7.0-2 [105 kB]
Get:7 http://127.0.0.1:9999/debian unstable/main amd64 libidn11 amd64 1.32-3.1 [114 kB]
Get:8 http://127.0.0.1:9999/debian unstable/main amd64 libkmod2 amd64 22-1.1 [47.9 kB]
Get:9 http://127.0.0.1:9999/debian unstable/main amd64 libseccomp2 amd64 2.3.1-2 [38.8 kB]
Get:10 http://127.0.0.1:9999/debian unstable/main amd64 libcap2-bin amd64 1:2.25-1 [26.5 kB]
Get:11 http://127.0.0.1:9999/debian unstable/main amd64 systemd amd64 230-5 [2337 kB]
Get:12 http://127.0.0.1:9999/debian unstable/main amd64 systemd-sysv amd64 230-5 [67.8 kB]
Get:13 http://127.0.0.1:9999/debian unstable/main amd64 init amd64 1.36 [8748 B]
Get:14 http://127.0.0.1:9999/debian unstable/main amd64 groff-base amd64 1.22.3-8 [1162 kB]
Get:15 http://127.0.0.1:9999/debian unstable/main amd64 libbsd0 amd64 0.8.3-1 [83.0 kB]
Get:16 http://127.0.0.1:9999/debian unstable/main amd64 bsdmainutils amd64 9.0.10 [184 kB]
Get:17 http://127.0.0.1:9999/debian unstable/main amd64 libpipeline1 amd64 1.4.1-2 [27.6 kB]
Get:18 http://127.0.0.1:9999/debian unstable/main amd64 man-db amd64 2.7.5-1 [1003 kB]
Get:19 http://127.0.0.1:9999/debian unstable/main amd64 libyaml-0-2 amd64 0.1.6-3 [50.4 kB]
Get:20 http://127.0.0.1:9999/debian unstable/main amd64 libssl1.0.2 amd64 1.0.2h-1 [1287 kB]
Get:21 http://127.0.0.1:9999/debian unstable/main amd64 libpython3.5-minimal amd64 3.5.2-2 [567 kB]
Get:22 http://127.0.0.1:9999/debian unstable/main amd64 libexpat1 amd64 2.2.0-1 [82.0 kB]
Get:23 http://127.0.0.1:9999/debian unstable/main amd64 python3.5-minimal amd64 3.5.2-2 [1642 kB]
Get:24 http://127.0.0.1:9999/debian unstable/main amd64 python3-minimal amd64 3.5.1-4 [35.3 kB]
Get:25 http://127.0.0.1:9999/debian unstable/main amd64 mime-support all 3.60 [36.7 kB]
Get:26 http://127.0.0.1:9999/debian unstable/main amd64 libmpdec2 amd64 2.4.2-1 [85.2 kB]
Get:27 http://127.0.0.1:9999/debian unstable/main amd64 libsqlite3-0 amd64 3.13.0-1 [558 kB]
Get:28 http://127.0.0.1:9999/debian unstable/main amd64 libpython3.5-stdlib amd64 3.5.2-2 [2132 kB]
Get:29 http://127.0.0.1:9999/debian unstable/main amd64 python3.5 amd64 3.5.2-2 [210 kB]
Get:30 http://127.0.0.1:9999/debian unstable/main amd64 libpython3-stdlib amd64 3.5.1-4 [18.6 kB]
Get:31 http://127.0.0.1:9999/debian unstable/main amd64 dh-python all 2.20160609 [78.4 kB]
Get:32 http://127.0.0.1:9999/debian unstable/main amd64 python3 amd64 3.5.1-4 [21.6 kB]
Get:33 http://127.0.0.1:9999/debian unstable/main amd64 libmagic1 amd64 1:5.28-2 [274 kB]
Get:34 http://127.0.0.1:9999/debian unstable/main amd64 file amd64 1:5.28-2 [62.6 kB]
Get:35 http://127.0.0.1:9999/debian unstable/main amd64 gettext-base amd64 0.19.8.1-1 [121 kB]
Get:36 http://127.0.0.1:9999/debian unstable/main amd64 libicu55 amd64 55.1-7 [7649 kB]
Get:37 http://127.0.0.1:9999/debian unstable/main amd64 libxml2 amd64 2.9.3+dfsg1-1.2 [917 kB]
Get:38 http://127.0.0.1:9999/debian unstable/main amd64 libsigsegv2 amd64 2.10-5 [28.9 kB]
Get:39 http://127.0.0.1:9999/debian unstable/main amd64 m4 amd64 1.4.17-5 [255 kB]
Get:40 http://127.0.0.1:9999/debian unstable/main amd64 autoconf all 2.69-10 [338 kB]
Get:41 http://127.0.0.1:9999/debian unstable/main amd64 autotools-dev all 20160430.1 [72.6 kB]
Get:42 http://127.0.0.1:9999/debian unstable/main amd64 automake all 1:1.15-4 [735 kB]
Get:43 http://127.0.0.1:9999/debian unstable/main amd64 autopoint all 0.19.8.1-1 [433 kB]
Get:44 http://127.0.0.1:9999/debian unstable/main amd64 openssl amd64 1.0.2h-1 [681 kB]
Get:45 http://127.0.0.1:9999/debian unstable/main amd64 ca-certificates all 20160104 [200 kB]
Get:46 http://127.0.0.1:9999/debian unstable/main amd64 libffi6 amd64 3.2.1-4 [20.4 kB]
Get:47 http://127.0.0.1:9999/debian unstable/main amd64 libglib2.0-0 amd64 2.48.1-1 [2707 kB]
Get:48 http://127.0.0.1:9999/debian unstable/main amd64 libcroco3 amd64 0.6.11-1 [143 kB]
Get:49 http://127.0.0.1:9999/debian unstable/main amd64 libunistring0 amd64 0.9.6+really0.9.3-0.1 [279 kB]
Get:50 http://127.0.0.1:9999/debian unstable/main amd64 gettext amd64 0.19.8.1-1 [1493 kB]
Get:51 http://127.0.0.1:9999/debian unstable/main amd64 intltool-debian all 0.35.0+20060710.4 [26.3 kB]
Get:52 http://127.0.0.1:9999/debian unstable/main amd64 po-debconf all 1.0.19 [249 kB]
Get:53 http://127.0.0.1:9999/debian unstable/main amd64 libarchive-zip-perl all 1.57-1 [95.1 kB]
Get:54 http://127.0.0.1:9999/debian unstable/main amd64 libfile-stripnondeterminism-perl all 0.019-1 [12.2 kB]
Get:55 http://127.0.0.1:9999/debian unstable/main amd64 libtimedate-perl all 2.3000-2 [42.2 kB]
Get:56 http://127.0.0.1:9999/debian unstable/main amd64 dh-strip-nondeterminism all 0.019-1 [7352 B]
Get:57 http://127.0.0.1:9999/debian unstable/main amd64 libtool all 2.4.6-0.1 [200 kB]
Get:58 http://127.0.0.1:9999/debian unstable/main amd64 dh-autoreconf all 12 [15.8 kB]
Get:59 http://127.0.0.1:9999/debian unstable/main amd64 debhelper all 9.20160702 [790 kB]
Get:60 http://127.0.0.1:9999/debian unstable/main amd64 devscripts amd64 2.16.6 [925 kB]
Get:61 http://127.0.0.1:9999/debian unstable/main amd64 rubygems-integration all 1.10 [4882 B]
Get:62 http://127.0.0.1:9999/debian unstable/main amd64 ruby-did-you-mean all 1.0.0-2 [11.2 kB]
Get:63 http://127.0.0.1:9999/debian unstable/main amd64 ruby-minitest all 5.9.0-1 [51.1 kB]
Get:64 http://127.0.0.1:9999/debian unstable/main amd64 ruby-net-telnet all 0.1.1-2 [12.5 kB]
Get:65 http://127.0.0.1:9999/debian unstable/main amd64 ruby-power-assert all 0.3.0-1 [7902 B]
Get:66 http://127.0.0.1:9999/debian unstable/main amd64 ruby-test-unit all 3.1.7-2 [69.6 kB]
Get:67 http://127.0.0.1:9999/debian unstable/main amd64 libruby2.3 amd64 2.3.1-5 [3093 kB]
Get:68 http://127.0.0.1:9999/debian unstable/main amd64 ruby2.3 amd64 2.3.1-5 [178 kB]
Get:69 http://127.0.0.1:9999/debian unstable/main amd64 ruby amd64 1:2.3.0+4 [10.5 kB]
Get:70 http://127.0.0.1:9999/debian unstable/main amd64 rake all 10.5.0-2 [49.4 kB]
Get:71 http://127.0.0.1:9999/debian unstable/main amd64 gem2deb-test-runner amd64 0.31 [19.9 kB]
Get:72 http://127.0.0.1:9999/debian unstable/main amd64 libgmpxx4ldbl amd64 2:6.1.1+dfsg-1 [22.3 kB]
Get:73 http://127.0.0.1:9999/debian unstable/main amd64 libgmp-dev amd64 2:6.1.1+dfsg-1 [629 kB]
Get:74 http://127.0.0.1:9999/debian unstable/main amd64 ruby2.3-dev amd64 2.3.1-5 [1170 kB]
Get:75 http://127.0.0.1:9999/debian unstable/main amd64 ruby-all-dev amd64 1:2.3.0+4 [9996 B]
Get:76 http://127.0.0.1:9999/debian unstable/main amd64 ruby-setup all 3.4.1-9 [34.2 kB]
Get:77 http://127.0.0.1:9999/debian unstable/main amd64 gem2deb amd64 0.31 [55.6 kB]
Get:78 http://127.0.0.1:9999/debian unstable/main amd64 libmarkdown2 amd64 2.2.0-1 [34.5 kB]
Get:79 http://127.0.0.1:9999/debian unstable/main amd64 libmarkdown2-dev amd64 2.2.0-1 [22.0 kB]
Get:80 http://127.0.0.1:9999/debian unstable/main amd64 ruby-diff-lcs all 1.2.5-2 [26.7 kB]
Get:81 http://127.0.0.1:9999/debian unstable/main amd64 ruby-rspec-support all 3.4.0c3e0m1s1-1 [26.8 kB]
Get:82 http://127.0.0.1:9999/debian unstable/main amd64 ruby-rspec-expectations all 3.4.0c3e0m1s1-1 [93.6 kB]
Get:83 http://127.0.0.1:9999/debian unstable/main amd64 ruby-rspec-mocks all 3.4.0c3e0m1s1-1 [89.6 kB]
Get:84 http://127.0.0.1:9999/debian unstable/main amd64 ruby-thread-order all 1.1.0-1 [5096 B]
Get:85 http://127.0.0.1:9999/debian unstable/main amd64 ruby-rspec-core all 3.4.0c3e0m1s1-1 [182 kB]
Get:86 http://127.0.0.1:9999/debian unstable/main amd64 ruby-rspec all 3.4.0c3e0m1s1-1 [6936 B]
debconf: delaying package configuration, since apt-utils is not installed
Fetched 37.1 MB in 0s (88.9 MB/s)
Selecting previously unselected package libapparmor1:amd64.
(Reading database ... (Reading database ... 5%(Reading database ... 10%(Reading database ... 15%(Reading database ... 20%(Reading database ... 25%(Reading database ... 30%(Reading database ... 35%(Reading database ... 40%(Reading database ... 45%(Reading database ... 50%(Reading database ... 55%(Reading database ... 60%(Reading database ... 65%(Reading database ... 70%(Reading database ... 75%(Reading database ... 80%(Reading database ... 85%(Reading database ... 90%(Reading database ... 95%(Reading database ... 100%(Reading database ... 11521 files and directories currently installed.)
Preparing to unpack .../libapparmor1_2.10.95-4_amd64.deb ...
Unpacking libapparmor1:amd64 (2.10.95-4) ...
Selecting previously unselected package libcap2:amd64.
Preparing to unpack .../libcap2_1%3a2.25-1_amd64.deb ...
Unpacking libcap2:amd64 (1:2.25-1) ...
Selecting previously unselected package dmsetup.
Preparing to unpack .../dmsetup_2%3a1.02.127-1_amd64.deb ...
Unpacking dmsetup (2:1.02.127-1) ...
Selecting previously unselected package libdevmapper1.02.1:amd64.
Preparing to unpack .../libdevmapper1.02.1_2%3a1.02.127-1_amd64.deb ...
Unpacking libdevmapper1.02.1:amd64 (2:1.02.127-1) ...
Selecting previously unselected package libcryptsetup4:amd64.
Preparing to unpack .../libcryptsetup4_2%3a1.7.0-2_amd64.deb ...
Unpacking libcryptsetup4:amd64 (2:1.7.0-2) ...
Selecting previously unselected package libidn11:amd64.
Preparing to unpack .../libidn11_1.32-3.1_amd64.deb ...
Unpacking libidn11:amd64 (1.32-3.1) ...
Selecting previously unselected package libkmod2:amd64.
Preparing to unpack .../libkmod2_22-1.1_amd64.deb ...
Unpacking libkmod2:amd64 (22-1.1) ...
Selecting previously unselected package libseccomp2:amd64.
Preparing to unpack .../libseccomp2_2.3.1-2_amd64.deb ...
Unpacking libseccomp2:amd64 (2.3.1-2) ...
Selecting previously unselected package libcap2-bin.
Preparing to unpack .../libcap2-bin_1%3a2.25-1_amd64.deb ...
Unpacking libcap2-bin (1:2.25-1) ...
Selecting previously unselected package systemd.
Preparing to unpack .../systemd_230-5_amd64.deb ...
Unpacking systemd (230-5) ...
Processing triggers for libc-bin (2.23-1) ...
Setting up libapparmor1:amd64 (2.10.95-4) ...
Setting up libcap2:amd64 (1:2.25-1) ...
Setting up libidn11:amd64 (1.32-3.1) ...
Setting up libkmod2:amd64 (22-1.1) ...
Setting up libseccomp2:amd64 (2.3.1-2) ...
Setting up libcap2-bin (1:2.25-1) ...
Setting up libdevmapper1.02.1:amd64 (2:1.02.127-1) ...
Setting up libcryptsetup4:amd64 (2:1.7.0-2) ...
Setting up systemd (230-5) ...
Created symlink /etc/systemd/system/getty.target.wants/getty@tty1.service → /lib/systemd/system/getty@.service.
Created symlink /etc/systemd/system/multi-user.target.wants/remote-fs.target → /lib/systemd/system/remote-fs.target.
Created symlink /etc/systemd/system/sysinit.target.wants/systemd-timesyncd.service → /lib/systemd/system/systemd-timesyncd.service.
Initializing machine ID from random generator.
addgroup: The group `systemd-journal' already exists as a system group. Exiting.
Setting up dmsetup (2:1.02.127-1) ...
Processing triggers for libc-bin (2.23-1) ...
Selecting previously unselected package systemd-sysv.
(Reading database ... (Reading database ... 5%(Reading database ... 10%(Reading database ... 15%(Reading database ... 20%(Reading database ... 25%(Reading database ... 30%(Reading database ... 35%(Reading database ... 40%(Reading database ... 45%(Reading database ... 50%(Reading database ... 55%(Reading database ... 60%(Reading database ... 65%(Reading database ... 70%(Reading database ... 75%(Reading database ... 80%(Reading database ... 85%(Reading database ... 90%(Reading database ... 95%(Reading database ... 100%(Reading database ... 12279 files and directories currently installed.)
Preparing to unpack .../systemd-sysv_230-5_amd64.deb ...
Unpacking systemd-sysv (230-5) ...
Setting up systemd-sysv (230-5) ...
Selecting previously unselected package init.
(Reading database ... (Reading database ... 5%(Reading database ... 10%(Reading database ... 15%(Reading database ... 20%(Reading database ... 25%(Reading database ... 30%(Reading database ... 35%(Reading database ... 40%(Reading database ... 45%(Reading database ... 50%(Reading database ... 55%(Reading database ... 60%(Reading database ... 65%(Reading database ... 70%(Reading database ... 75%(Reading database ... 80%(Reading database ... 85%(Reading database ... 90%(Reading database ... 95%(Reading database ... 100%(Reading database ... 12296 files and directories currently installed.)
Preparing to unpack .../archives/init_1.36_amd64.deb ...
Unpacking init (1.36) ...
Selecting previously unselected package groff-base.
Preparing to unpack .../groff-base_1.22.3-8_amd64.deb ...
Unpacking groff-base (1.22.3-8) ...
Selecting previously unselected package libbsd0:amd64.
Preparing to unpack .../libbsd0_0.8.3-1_amd64.deb ...
Unpacking libbsd0:amd64 (0.8.3-1) ...
Selecting previously unselected package bsdmainutils.
Preparing to unpack .../bsdmainutils_9.0.10_amd64.deb ...
Unpacking bsdmainutils (9.0.10) ...
Selecting previously unselected package libpipeline1:amd64.
Preparing to unpack .../libpipeline1_1.4.1-2_amd64.deb ...
Unpacking libpipeline1:amd64 (1.4.1-2) ...
Selecting previously unselected package man-db.
Preparing to unpack .../man-db_2.7.5-1_amd64.deb ...
Unpacking man-db (2.7.5-1) ...
Selecting previously unselected package libyaml-0-2:amd64.
Preparing to unpack .../libyaml-0-2_0.1.6-3_amd64.deb ...
Unpacking libyaml-0-2:amd64 (0.1.6-3) ...
Selecting previously unselected package libssl1.0.2:amd64.
Preparing to unpack .../libssl1.0.2_1.0.2h-1_amd64.deb ...
Unpacking libssl1.0.2:amd64 (1.0.2h-1) ...
Selecting previously unselected package libpython3.5-minimal:amd64.
Preparing to unpack .../libpython3.5-minimal_3.5.2-2_amd64.deb ...
Unpacking libpython3.5-minimal:amd64 (3.5.2-2) ...
Selecting previously unselected package libexpat1:amd64.
Preparing to unpack .../libexpat1_2.2.0-1_amd64.deb ...
Unpacking libexpat1:amd64 (2.2.0-1) ...
Selecting previously unselected package python3.5-minimal.
Preparing to unpack .../python3.5-minimal_3.5.2-2_amd64.deb ...
Unpacking python3.5-minimal (3.5.2-2) ...
Selecting previously unselected package python3-minimal.
Preparing to unpack .../python3-minimal_3.5.1-4_amd64.deb ...
Unpacking python3-minimal (3.5.1-4) ...
Selecting previously unselected package mime-support.
Preparing to unpack .../mime-support_3.60_all.deb ...
Unpacking mime-support (3.60) ...
Selecting previously unselected package libmpdec2:amd64.
Preparing to unpack .../libmpdec2_2.4.2-1_amd64.deb ...
Unpacking libmpdec2:amd64 (2.4.2-1) ...
Selecting previously unselected package libsqlite3-0:amd64.
Preparing to unpack .../libsqlite3-0_3.13.0-1_amd64.deb ...
Unpacking libsqlite3-0:amd64 (3.13.0-1) ...
Selecting previously unselected package libpython3.5-stdlib:amd64.
Preparing to unpack .../libpython3.5-stdlib_3.5.2-2_amd64.deb ...
Unpacking libpython3.5-stdlib:amd64 (3.5.2-2) ...
Selecting previously unselected package python3.5.
Preparing to unpack .../python3.5_3.5.2-2_amd64.deb ...
Unpacking python3.5 (3.5.2-2) ...
Selecting previously unselected package libpython3-stdlib:amd64.
Preparing to unpack .../libpython3-stdlib_3.5.1-4_amd64.deb ...
Unpacking libpython3-stdlib:amd64 (3.5.1-4) ...
Selecting previously unselected package dh-python.
Preparing to unpack .../dh-python_2.20160609_all.deb ...
Unpacking dh-python (2.20160609) ...
Processing triggers for libc-bin (2.23-1) ...
Setting up libssl1.0.2:amd64 (1.0.2h-1) ...
Setting up libpython3.5-minimal:amd64 (3.5.2-2) ...
Setting up libexpat1:amd64 (2.2.0-1) ...
Setting up python3.5-minimal (3.5.2-2) ...
Setting up python3-minimal (3.5.1-4) ...
Processing triggers for libc-bin (2.23-1) ...
Selecting previously unselected package python3.
(Reading database ... (Reading database ... 5%(Reading database ... 10%(Reading database ... 15%(Reading database ... 20%(Reading database ... 25%(Reading database ... 30%(Reading database ... 35%(Reading database ... 40%(Reading database ... 45%(Reading database ... 50%(Reading database ... 55%(Reading database ... 60%(Reading database ... 65%(Reading database ... 70%(Reading database ... 75%(Reading database ... 80%(Reading database ... 85%(Reading database ... 90%(Reading database ... 95%(Reading database ... 100%(Reading database ... 13839 files and directories currently installed.)
Preparing to unpack .../python3_3.5.1-4_amd64.deb ...
Unpacking python3 (3.5.1-4) ...
Selecting previously unselected package libmagic1:amd64.
Preparing to unpack .../libmagic1_1%3a5.28-2_amd64.deb ...
Unpacking libmagic1:amd64 (1:5.28-2) ...
Selecting previously unselected package file.
Preparing to unpack .../file_1%3a5.28-2_amd64.deb ...
Unpacking file (1:5.28-2) ...
Selecting previously unselected package gettext-base.
Preparing to unpack .../gettext-base_0.19.8.1-1_amd64.deb ...
Unpacking gettext-base (0.19.8.1-1) ...
Selecting previously unselected package libicu55:amd64.
Preparing to unpack .../libicu55_55.1-7_amd64.deb ...
Unpacking libicu55:amd64 (55.1-7) ...
Selecting previously unselected package libxml2:amd64.
Preparing to unpack .../libxml2_2.9.3+dfsg1-1.2_amd64.deb ...
Unpacking libxml2:amd64 (2.9.3+dfsg1-1.2) ...
Selecting previously unselected package libsigsegv2:amd64.
Preparing to unpack .../libsigsegv2_2.10-5_amd64.deb ...
Unpacking libsigsegv2:amd64 (2.10-5) ...
Selecting previously unselected package m4.
Preparing to unpack .../archives/m4_1.4.17-5_amd64.deb ...
Unpacking m4 (1.4.17-5) ...
Selecting previously unselected package autoconf.
Preparing to unpack .../autoconf_2.69-10_all.deb ...
Unpacking autoconf (2.69-10) ...
Selecting previously unselected package autotools-dev.
Preparing to unpack .../autotools-dev_20160430.1_all.deb ...
Unpacking autotools-dev (20160430.1) ...
Selecting previously unselected package automake.
Preparing to unpack .../automake_1%3a1.15-4_all.deb ...
Unpacking automake (1:1.15-4) ...
Selecting previously unselected package autopoint.
Preparing to unpack .../autopoint_0.19.8.1-1_all.deb ...
Unpacking autopoint (0.19.8.1-1) ...
Selecting previously unselected package openssl.
Preparing to unpack .../openssl_1.0.2h-1_amd64.deb ...
Unpacking openssl (1.0.2h-1) ...
Selecting previously unselected package ca-certificates.
Preparing to unpack .../ca-certificates_20160104_all.deb ...
Unpacking ca-certificates (20160104) ...
Selecting previously unselected package libffi6:amd64.
Preparing to unpack .../libffi6_3.2.1-4_amd64.deb ...
Unpacking libffi6:amd64 (3.2.1-4) ...
Selecting previously unselected package libglib2.0-0:amd64.
Preparing to unpack .../libglib2.0-0_2.48.1-1_amd64.deb ...
Unpacking libglib2.0-0:amd64 (2.48.1-1) ...
Selecting previously unselected package libcroco3:amd64.
Preparing to unpack .../libcroco3_0.6.11-1_amd64.deb ...
Unpacking libcroco3:amd64 (0.6.11-1) ...
Selecting previously unselected package libunistring0:amd64.
Preparing to unpack .../libunistring0_0.9.6+really0.9.3-0.1_amd64.deb ...
Unpacking libunistring0:amd64 (0.9.6+really0.9.3-0.1) ...
Selecting previously unselected package gettext.
Preparing to unpack .../gettext_0.19.8.1-1_amd64.deb ...
Unpacking gettext (0.19.8.1-1) ...
Selecting previously unselected package intltool-debian.
Preparing to unpack .../intltool-debian_0.35.0+20060710.4_all.deb ...
Unpacking intltool-debian (0.35.0+20060710.4) ...
Selecting previously unselected package po-debconf.
Preparing to unpack .../po-debconf_1.0.19_all.deb ...
Unpacking po-debconf (1.0.19) ...
Selecting previously unselected package libarchive-zip-perl.
Preparing to unpack .../libarchive-zip-perl_1.57-1_all.deb ...
Unpacking libarchive-zip-perl (1.57-1) ...
Selecting previously unselected package libfile-stripnondeterminism-perl.
Preparing to unpack .../libfile-stripnondeterminism-perl_0.019-1_all.deb ...
Unpacking libfile-stripnondeterminism-perl (0.019-1) ...
Selecting previously unselected package libtimedate-perl.
Preparing to unpack .../libtimedate-perl_2.3000-2_all.deb ...
Unpacking libtimedate-perl (2.3000-2) ...
Selecting previously unselected package dh-strip-nondeterminism.
Preparing to unpack .../dh-strip-nondeterminism_0.019-1_all.deb ...
Unpacking dh-strip-nondeterminism (0.019-1) ...
Selecting previously unselected package libtool.
Preparing to unpack .../libtool_2.4.6-0.1_all.deb ...
Unpacking libtool (2.4.6-0.1) ...
Selecting previously unselected package dh-autoreconf.
Preparing to unpack .../dh-autoreconf_12_all.deb ...
Unpacking dh-autoreconf (12) ...
Selecting previously unselected package debhelper.
Preparing to unpack .../debhelper_9.20160702_all.deb ...
Unpacking debhelper (9.20160702) ...
Selecting previously unselected package devscripts.
Preparing to unpack .../devscripts_2.16.6_amd64.deb ...
Unpacking devscripts (2.16.6) ...
Selecting previously unselected package rubygems-integration.
Preparing to unpack .../rubygems-integration_1.10_all.deb ...
Unpacking rubygems-integration (1.10) ...
Selecting previously unselected package ruby-did-you-mean.
Preparing to unpack .../ruby-did-you-mean_1.0.0-2_all.deb ...
Unpacking ruby-did-you-mean (1.0.0-2) ...
Selecting previously unselected package ruby-minitest.
Preparing to unpack .../ruby-minitest_5.9.0-1_all.deb ...
Unpacking ruby-minitest (5.9.0-1) ...
Selecting previously unselected package ruby-net-telnet.
Preparing to unpack .../ruby-net-telnet_0.1.1-2_all.deb ...
Unpacking ruby-net-telnet (0.1.1-2) ...
Selecting previously unselected package ruby-power-assert.
Preparing to unpack .../ruby-power-assert_0.3.0-1_all.deb ...
Unpacking ruby-power-assert (0.3.0-1) ...
Selecting previously unselected package ruby-test-unit.
Preparing to unpack .../ruby-test-unit_3.1.7-2_all.deb ...
Unpacking ruby-test-unit (3.1.7-2) ...
Selecting previously unselected package libruby2.3:amd64.
Preparing to unpack .../libruby2.3_2.3.1-5_amd64.deb ...
Unpacking libruby2.3:amd64 (2.3.1-5) ...
Selecting previously unselected package ruby2.3.
Preparing to unpack .../ruby2.3_2.3.1-5_amd64.deb ...
Unpacking ruby2.3 (2.3.1-5) ...
Selecting previously unselected package ruby.
Preparing to unpack .../ruby_1%3a2.3.0+4_amd64.deb ...
Unpacking ruby (1:2.3.0+4) ...
Selecting previously unselected package rake.
Preparing to unpack .../archives/rake_10.5.0-2_all.deb ...
Unpacking rake (10.5.0-2) ...
Selecting previously unselected package gem2deb-test-runner.
Preparing to unpack .../gem2deb-test-runner_0.31_amd64.deb ...
Unpacking gem2deb-test-runner (0.31) ...
Selecting previously unselected package libgmpxx4ldbl:amd64.
Preparing to unpack .../libgmpxx4ldbl_2%3a6.1.1+dfsg-1_amd64.deb ...
Unpacking libgmpxx4ldbl:amd64 (2:6.1.1+dfsg-1) ...
Selecting previously unselected package libgmp-dev:amd64.
Preparing to unpack .../libgmp-dev_2%3a6.1.1+dfsg-1_amd64.deb ...
Unpacking libgmp-dev:amd64 (2:6.1.1+dfsg-1) ...
Selecting previously unselected package ruby2.3-dev:amd64.
Preparing to unpack .../ruby2.3-dev_2.3.1-5_amd64.deb ...
Unpacking ruby2.3-dev:amd64 (2.3.1-5) ...
Selecting previously unselected package ruby-all-dev:amd64.
Preparing to unpack .../ruby-all-dev_1%3a2.3.0+4_amd64.deb ...
Unpacking ruby-all-dev:amd64 (1:2.3.0+4) ...
Selecting previously unselected package ruby-setup.
Preparing to unpack .../ruby-setup_3.4.1-9_all.deb ...
Unpacking ruby-setup (3.4.1-9) ...
Selecting previously unselected package gem2deb.
Preparing to unpack .../gem2deb_0.31_amd64.deb ...
Unpacking gem2deb (0.31) ...
Selecting previously unselected package libmarkdown2:amd64.
Preparing to unpack .../libmarkdown2_2.2.0-1_amd64.deb ...
Unpacking libmarkdown2:amd64 (2.2.0-1) ...
Selecting previously unselected package libmarkdown2-dev:amd64.
Preparing to unpack .../libmarkdown2-dev_2.2.0-1_amd64.deb ...
Unpacking libmarkdown2-dev:amd64 (2.2.0-1) ...
Selecting previously unselected package ruby-diff-lcs.
Preparing to unpack .../ruby-diff-lcs_1.2.5-2_all.deb ...
Unpacking ruby-diff-lcs (1.2.5-2) ...
Selecting previously unselected package ruby-rspec-support.
Preparing to unpack .../ruby-rspec-support_3.4.0c3e0m1s1-1_all.deb ...
Unpacking ruby-rspec-support (3.4.0c3e0m1s1-1) ...
Selecting previously unselected package ruby-rspec-expectations.
Preparing to unpack .../ruby-rspec-expectations_3.4.0c3e0m1s1-1_all.deb ...
Unpacking ruby-rspec-expectations (3.4.0c3e0m1s1-1) ...
Selecting previously unselected package ruby-rspec-mocks.
Preparing to unpack .../ruby-rspec-mocks_3.4.0c3e0m1s1-1_all.deb ...
Unpacking ruby-rspec-mocks (3.4.0c3e0m1s1-1) ...
Selecting previously unselected package ruby-thread-order.
Preparing to unpack .../ruby-thread-order_1.1.0-1_all.deb ...
Unpacking ruby-thread-order (1.1.0-1) ...
Selecting previously unselected package ruby-rspec-core.
Preparing to unpack .../ruby-rspec-core_3.4.0c3e0m1s1-1_all.deb ...
Unpacking ruby-rspec-core (3.4.0c3e0m1s1-1) ...
Selecting previously unselected package ruby-rspec.
Preparing to unpack .../ruby-rspec_3.4.0c3e0m1s1-1_all.deb ...
Unpacking ruby-rspec (3.4.0c3e0m1s1-1) ...
Selecting previously unselected package sbuild-build-depends-ruby-bluecloth-dummy.
Preparing to unpack .../sbuild-build-depends-ruby-bluecloth-dummy.deb ...
Unpacking sbuild-build-depends-ruby-bluecloth-dummy (0.invalid.0) ...
Processing triggers for libc-bin (2.23-1) ...
Setting up init (1.36) ...
Setting up groff-base (1.22.3-8) ...
Setting up libbsd0:amd64 (0.8.3-1) ...
Setting up bsdmainutils (9.0.10) ...
update-alternatives: using /usr/bin/bsd-write to provide /usr/bin/write (write) in auto mode
update-alternatives: using /usr/bin/bsd-from to provide /usr/bin/from (from) in auto mode
Setting up libpipeline1:amd64 (1.4.1-2) ...
Setting up man-db (2.7.5-1) ...
Not building database; man-db/auto-update is not 'true'.
Setting up libyaml-0-2:amd64 (0.1.6-3) ...
Setting up mime-support (3.60) ...
Setting up libmpdec2:amd64 (2.4.2-1) ...
Setting up libsqlite3-0:amd64 (3.13.0-1) ...
Setting up libpython3.5-stdlib:amd64 (3.5.2-2) ...
Setting up python3.5 (3.5.2-2) ...
Setting up libpython3-stdlib:amd64 (3.5.1-4) ...
Setting up libmagic1:amd64 (1:5.28-2) ...
Setting up file (1:5.28-2) ...
Setting up gettext-base (0.19.8.1-1) ...
Setting up libicu55:amd64 (55.1-7) ...
Setting up libxml2:amd64 (2.9.3+dfsg1-1.2) ...
Setting up libsigsegv2:amd64 (2.10-5) ...
Setting up m4 (1.4.17-5) ...
Setting up autoconf (2.69-10) ...
Setting up autotools-dev (20160430.1) ...
Setting up automake (1:1.15-4) ...
update-alternatives: using /usr/bin/automake-1.15 to provide /usr/bin/automake (automake) in auto mode
Setting up autopoint (0.19.8.1-1) ...
Setting up openssl (1.0.2h-1) ...
Setting up ca-certificates (20160104) ...
Setting up libffi6:amd64 (3.2.1-4) ...
Setting up libglib2.0-0:amd64 (2.48.1-1) ...
No schema files found: doing nothing.
Setting up libcroco3:amd64 (0.6.11-1) ...
Setting up libunistring0:amd64 (0.9.6+really0.9.3-0.1) ...
Setting up gettext (0.19.8.1-1) ...
Setting up intltool-debian (0.35.0+20060710.4) ...
Setting up po-debconf (1.0.19) ...
Setting up libarchive-zip-perl (1.57-1) ...
Setting up libfile-stripnondeterminism-perl (0.019-1) ...
Setting up libtimedate-perl (2.3000-2) ...
Setting up libtool (2.4.6-0.1) ...
Setting up rubygems-integration (1.10) ...
Setting up ruby-did-you-mean (1.0.0-2) ...
Setting up ruby-minitest (5.9.0-1) ...
Setting up ruby-net-telnet (0.1.1-2) ...
Setting up ruby-power-assert (0.3.0-1) ...
Setting up ruby-test-unit (3.1.7-2) ...
Setting up libgmpxx4ldbl:amd64 (2:6.1.1+dfsg-1) ...
Setting up libgmp-dev:amd64 (2:6.1.1+dfsg-1) ...
Setting up libmarkdown2:amd64 (2.2.0-1) ...
Setting up libmarkdown2-dev:amd64 (2.2.0-1) ...
Setting up dh-python (2.20160609) ...
Setting up python3 (3.5.1-4) ...
Setting up dh-autoreconf (12) ...
Setting up devscripts (2.16.6) ...
Setting up rake (10.5.0-2) ...
Setting up libruby2.3:amd64 (2.3.1-5) ...
Setting up ruby2.3 (2.3.1-5) ...
Setting up ruby2.3-dev:amd64 (2.3.1-5) ...
Setting up ruby-all-dev:amd64 (1:2.3.0+4) ...
Setting up debhelper (9.20160702) ...
Setting up ruby (1:2.3.0+4) ...
Setting up gem2deb-test-runner (0.31) ...
Setting up ruby-setup (3.4.1-9) ...
Setting up gem2deb (0.31) ...
Setting up ruby-diff-lcs (1.2.5-2) ...
Setting up ruby-rspec-support (3.4.0c3e0m1s1-1) ...
Setting up ruby-rspec-expectations (3.4.0c3e0m1s1-1) ...
Setting up ruby-rspec-mocks (3.4.0c3e0m1s1-1) ...
Setting up ruby-thread-order (1.1.0-1) ...
Setting up ruby-rspec-core (3.4.0c3e0m1s1-1) ...
Setting up ruby-rspec (3.4.0c3e0m1s1-1) ...
Setting up sbuild-build-depends-ruby-bluecloth-dummy (0.invalid.0) ...
Setting up dh-strip-nondeterminism (0.019-1) ...
Processing triggers for libc-bin (2.23-1) ...
Processing triggers for ca-certificates (20160104) ...
Updating certificates in /etc/ssl/certs...
173 added, 0 removed; done.
Running hooks in /etc/ca-certificates/update.d...
done.
W: No sandbox user '_apt' on the system, can not drop privileges

┌──────────────────────────────────────────────────────────────────────────────┐
│ Build environment                                                            │
└──────────────────────────────────────────────────────────────────────────────┘

Kernel: Linux 3.16.0-4-amd64 amd64 (x86_64)
Toolchain package versions: binutils_2.26.1-1 dpkg-dev_1.18.9 g++-5_5.4.0-6 gcc-5_5.4.0-6 libc6-dev_2.23-1 libstdc++-5-dev_5.4.0-6 libstdc++6_6.1.1-9 linux-libc-dev_4.6.3-1
Package versions: adduser_3.115 apt_1.2.14 autoconf_2.69-10 automake_1:1.15-4 autopoint_0.19.8.1-1 autotools-dev_20160430.1 base-files_9.6 base-passwd_3.5.39 bash_4.3-15 binutils_2.26.1-1 bsdmainutils_9.0.10 bsdutils_1:2.28-5 build-essential_12.2 bzip2_1.0.6-8 ca-certificates_20160104 coreutils_8.25-2 cpp_4:5.3.1-3 cpp-5_5.4.0-6 dash_0.5.8-2.3 debconf_1.5.59 debfoster_2.7-2 debhelper_9.20160702 debian-archive-keyring_2014.3 debianutils_4.8 devscripts_2.16.6 dh-autoreconf_12 dh-python_2.20160609 dh-strip-nondeterminism_0.019-1 diffutils_1:3.3-3 dmsetup_2:1.02.127-1 dpkg_1.18.9 dpkg-dev_1.18.9 e2fslibs_1.43.1-1 e2fsprogs_1.43.1-1 eatmydata_105-3 fakeroot_1.21-1 file_1:5.28-2 findutils_4.6.0+git+20160517-5 g++_4:5.3.1-3 g++-5_5.4.0-6 gcc_4:5.3.1-3 gcc-4.9-base_4.9.3-14 gcc-5_5.4.0-6 gcc-5-base_5.4.0-6 gcc-6-base_6.1.1-9 gem2deb_0.31 gem2deb-test-runner_0.31 gettext_0.19.8.1-1 gettext-base_0.19.8.1-1 gnupg_1.4.20-6 gpgv_1.4.20-6 grep_2.25-6 groff-base_1.22.3-8 gzip_1.6-5 hostname_3.18 init_1.36 init-system-helpers_1.36 initscripts_2.88dsf-59.7 insserv_1.14.0-5.3 intltool-debian_0.35.0+20060710.4 libacl1_2.2.52-3 libapparmor1_2.10.95-4 libapt-pkg5.0_1.2.14 libarchive-zip-perl_1.57-1 libasan2_5.4.0-6 libatomic1_6.1.1-9 libattr1_1:2.4.47-2 libaudit-common_1:2.6.3-1 libaudit1_1:2.6.3-1 libblkid1_2.28-5 libbsd0_0.8.3-1 libbz2-1.0_1.0.6-8 libc-bin_2.23-1 libc-dev-bin_2.23-1 libc6_2.23-1 libc6-dev_2.23-1 libcap-ng0_0.7.7-3 libcap2_1:2.25-1 libcap2-bin_1:2.25-1 libcc1-0_6.1.1-9 libcilkrts5_6.1.1-9 libcomerr2_1.43.1-1 libcroco3_0.6.11-1 libcryptsetup4_2:1.7.0-2 libdb5.3_5.3.28-11 libdebconfclient0_0.213 libdevmapper1.02.1_2:1.02.127-1 libdpkg-perl_1.18.9 libeatmydata1_105-3 libexpat1_2.2.0-1 libfakeroot_1.21-1 libfdisk1_2.28-5 libffi6_3.2.1-4 libfile-stripnondeterminism-perl_0.019-1 libgc1c2_1:7.4.2-8 libgcc-5-dev_5.4.0-6 libgcc1_1:6.1.1-9 libgcrypt20_1.7.1-2 libgdbm3_1.8.3-14 libglib2.0-0_2.48.1-1 libgmp-dev_2:6.1.1+dfsg-1 libgmp10_2:6.1.1+dfsg-1 libgmpxx4ldbl_2:6.1.1+dfsg-1 libgomp1_6.1.1-9 libgpg-error0_1.23-1 libicu55_55.1-7 libidn11_1.32-3.1 libisl15_0.17.1-1 libitm1_6.1.1-9 libkmod2_22-1.1 liblsan0_6.1.1-9 liblz4-1_0.0~r131-2 liblzma5_5.1.1alpha+20120614-2.1 libmagic1_1:5.28-2 libmarkdown2_2.2.0-1 libmarkdown2-dev_2.2.0-1 libmount1_2.28-5 libmpc3_1.0.3-1 libmpdec2_2.4.2-1 libmpfr4_3.1.4-2 libmpx0_5.4.0-6 libncurses5_6.0+20160319-2+b1 libncursesw5_6.0+20160319-2+b1 libpam-modules_1.1.8-3.3 libpam-modules-bin_1.1.8-3.3 libpam-runtime_1.1.8-3.3 libpam0g_1.1.8-3.3 libpcre3_2:8.38-3.1 libperl5.22_5.22.2-1 libpipeline1_1.4.1-2 libpython3-stdlib_3.5.1-4 libpython3.5-minimal_3.5.2-2 libpython3.5-stdlib_3.5.2-2 libquadmath0_6.1.1-9 libreadline6_6.3-8+b4 libruby2.3_2.3.1-5 libseccomp2_2.3.1-2 libselinux1_2.5-3 libsemanage-common_2.5-1 libsemanage1_2.5-1 libsepol1_2.5-1 libsigsegv2_2.10-5 libsmartcols1_2.28-5 libsqlite3-0_3.13.0-1 libss2_1.43.1-1 libssl1.0.2_1.0.2h-1 libstdc++-5-dev_5.4.0-6 libstdc++6_6.1.1-9 libsystemd0_230-5 libtimedate-perl_2.3000-2 libtinfo5_6.0+20160319-2+b1 libtool_2.4.6-0.1 libtsan0_6.1.1-9 libubsan0_6.1.1-9 libudev1_230-5 libunistring0_0.9.6+really0.9.3-0.1 libusb-0.1-4_2:0.1.12-30 libustr-1.0-1_1.0.4-5 libuuid1_2.28-5 libxml2_2.9.3+dfsg1-1.2 libyaml-0-2_0.1.6-3 linux-libc-dev_4.6.3-1 login_1:4.2-3.1 lsb-base_9.20160629 m4_1.4.17-5 make_4.1-9 man-db_2.7.5-1 mawk_1.3.3-17 mime-support_3.60 mount_2.28-5 multiarch-support_2.23-1 ncurses-base_6.0+20160319-2 ncurses-bin_6.0+20160319-2+b1 openssl_1.0.2h-1 passwd_1:4.2-3.1 patch_2.7.5-1 perl_5.22.2-1 perl-base_5.22.2-1 perl-modules-5.22_5.22.2-1 po-debconf_1.0.19 python3_3.5.1-4 python3-minimal_3.5.1-4 python3.5_3.5.2-2 python3.5-minimal_3.5.2-2 rake_10.5.0-2 readline-common_6.3-8 ruby_1:2.3.0+4 ruby-all-dev_1:2.3.0+4 ruby-did-you-mean_1.0.0-2 ruby-diff-lcs_1.2.5-2 ruby-minitest_5.9.0-1 ruby-net-telnet_0.1.1-2 ruby-power-assert_0.3.0-1 ruby-rspec_3.4.0c3e0m1s1-1 ruby-rspec-core_3.4.0c3e0m1s1-1 ruby-rspec-expectations_3.4.0c3e0m1s1-1 ruby-rspec-mocks_3.4.0c3e0m1s1-1 ruby-rspec-support_3.4.0c3e0m1s1-1 ruby-setup_3.4.1-9 ruby-test-unit_3.1.7-2 ruby-thread-order_1.1.0-1 ruby2.3_2.3.1-5 ruby2.3-dev_2.3.1-5 rubygems-integration_1.10 sbuild-build-depends-core-dummy_0.invalid.0 sbuild-build-depends-ruby-bluecloth-dummy_0.invalid.0 sed_4.2.2-7.1 sensible-utils_0.0.9 startpar_0.59-3 systemd_230-5 systemd-sysv_230-5 sysv-rc_2.88dsf-59.7 sysvinit-utils_2.88dsf-59.7 tar_1.29-1 tzdata_2016f-1 util-linux_2.28-5 xz-utils_5.1.1alpha+20120614-2.1 zlib1g_1:1.2.8.dfsg-2+b1

┌──────────────────────────────────────────────────────────────────────────────┐
│ Build                                                                        │
└──────────────────────────────────────────────────────────────────────────────┘


Unpack source
─────────────

gpgv: keyblock resource `/sbuild-nonexistent/.gnupg/trustedkeys.gpg': file open error
gpgv: Signature made Wed Jul  8 20:12:46 2015 UTC using RSA key ID 39CD217A
gpgv: Can't check signature: public key not found
dpkg-source: warning: failed to verify signature on ./ruby-bluecloth_2.2.0-6.dsc
dpkg-source: info: extracting ruby-bluecloth in ruby-bluecloth-2.2.0
dpkg-source: info: unpacking ruby-bluecloth_2.2.0.orig.tar.gz
dpkg-source: info: unpacking ruby-bluecloth_2.2.0-6.debian.tar.xz
dpkg-source: info: applying 02_test_deactivate_BEGIN_headers.diff
dpkg-source: info: applying 04_drop_tidy_part.patch
dpkg-source: info: applying 06_update_test_suite.patch
dpkg-source: info: applying 08_build_against_system_discount.patch

Check disc space
────────────────

Sufficient free space for build

User Environment
────────────────

HOME=/sbuild-nonexistent
LD_LIBRARY_PATH=/usr/lib/libeatmydata
LD_PRELOAD=libeatmydata.so
LOGNAME=user
PATH=/usr/local/sbin:/usr/local/bin:/usr/sbin:/usr/bin:/sbin:/bin:/usr/games
PWD=/«PKGBUILDDIR»
SCHROOT_ALIAS_NAME=unstable-amd64-sbuild
SCHROOT_CHROOT_NAME=unstable-amd64-sbuild
SCHROOT_COMMAND=env
SCHROOT_GID=1001
SCHROOT_GROUP=user
SCHROOT_SESSION_ID=unstable-amd64-sbuild-197bf0dc-c9d6-4a86-9ea5-065be9b2bdc3
SCHROOT_UID=1001
SCHROOT_USER=user
SHELL=/bin/sh
USER=user

dpkg-buildpackage
─────────────────

dpkg-buildpackage: info: source package ruby-bluecloth
dpkg-buildpackage: info: source version 2.2.0-6
dpkg-buildpackage: info: source distribution unstable
dpkg-buildpackage: info: source changed by Cédric Boutillier <boutil@debian.org>
 dpkg-source --before-build ruby-bluecloth-2.2.0
dpkg-buildpackage: info: host architecture amd64
 fakeroot debian/rules clean
dh clean --buildsystem=ruby --with ruby
   dh_testdir -O--buildsystem=ruby
   dh_auto_clean -O--buildsystem=ruby
	dh_ruby --clean
   dh_ruby --clean
   dh_clean -O--buildsystem=ruby
 dpkg-source -b ruby-bluecloth-2.2.0
dpkg-source: info: using source format '3.0 (quilt)'
dpkg-source: info: building ruby-bluecloth using existing ./ruby-bluecloth_2.2.0.orig.tar.gz
dpkg-source: warning: ignoring deletion of file ext/mkdio.c, use --include-removal to override
dpkg-source: warning: ignoring deletion of file ext/docheader.c, use --include-removal to override
dpkg-source: warning: ignoring deletion of file ext/cstring.h, use --include-removal to override
dpkg-source: warning: ignoring deletion of file ext/html5.c, use --include-removal to override
dpkg-source: warning: ignoring deletion of file ext/tags.c, use --include-removal to override
dpkg-source: warning: ignoring deletion of file ext/css.c, use --include-removal to override
dpkg-source: warning: ignoring deletion of file ext/setup.c, use --include-removal to override
dpkg-source: warning: ignoring deletion of file ext/markdown.h, use --include-removal to override
dpkg-source: warning: ignoring deletion of file ext/xml.c, use --include-removal to override
dpkg-source: warning: ignoring deletion of file ext/emmatch.c, use --include-removal to override
dpkg-source: warning: ignoring deletion of file ext/tags.h, use --include-removal to override
dpkg-source: warning: ignoring deletion of file ext/Csio.c, use --include-removal to override
dpkg-source: warning: ignoring deletion of file ext/resource.c, use --include-removal to override
dpkg-source: warning: ignoring deletion of file ext/config.h, use --include-removal to override
dpkg-source: warning: ignoring deletion of file ext/xmlpage.c, use --include-removal to override
dpkg-source: warning: ignoring deletion of file ext/generate.c, use --include-removal to override
dpkg-source: warning: ignoring deletion of file ext/markdown.c, use --include-removal to override
dpkg-source: warning: ignoring deletion of file ext/version.c, use --include-removal to override
dpkg-source: warning: ignoring deletion of file ext/amalloc.h, use --include-removal to override
dpkg-source: warning: ignoring deletion of file ext/mkdio.h, use --include-removal to override
dpkg-source: info: building ruby-bluecloth in ruby-bluecloth_2.2.0-6.debian.tar.xz
dpkg-source: info: building ruby-bluecloth in ruby-bluecloth_2.2.0-6.dsc
 debian/rules build
dh build --buildsystem=ruby --with ruby
   dh_testdir -O--buildsystem=ruby
   dh_update_autotools_config -O--buildsystem=ruby
   dh_auto_configure -O--buildsystem=ruby
	dh_ruby --configure
   dh_auto_build -O--buildsystem=ruby
	dh_ruby --build
   dh_ruby --build
   dh_auto_test -O--buildsystem=ruby
	dh_ruby --test
 fakeroot debian/rules binary
dh binary --buildsystem=ruby --with ruby
   dh_testroot -O--buildsystem=ruby
   dh_prep -O--buildsystem=ruby
   dh_auto_install -O--buildsystem=ruby
	dh_ruby --install /«PKGBUILDDIR»/debian/ruby-bluecloth
   dh_ruby --install

┌──────────────────────────────────────────────────────────────────────────────┐
│ Install files                                                                │
└──────────────────────────────────────────────────────────────────────────────┘

install -d /«PKGBUILDDIR»/debian/ruby-bluecloth/usr/bin
install -D -m755 /«PKGBUILDDIR»/bin/bluecloth /«PKGBUILDDIR»/debian/ruby-bluecloth/usr/bin/bluecloth
install -d /«PKGBUILDDIR»/debian/ruby-bluecloth/usr/lib/ruby/vendor_ruby
install -D -m644 /«PKGBUILDDIR»/lib/bluecloth.rb /«PKGBUILDDIR»/debian/ruby-bluecloth/usr/lib/ruby/vendor_ruby/bluecloth.rb

┌──────────────────────────────────────────────────────────────────────────────┐
│ Build native extensions for ruby2.3                                          │
└──────────────────────────────────────────────────────────────────────────────┘

/usr/bin/ruby2.3 /usr/lib/ruby/vendor_ruby/gem2deb/extension_builder.rb /«PKGBUILDDIR» debian/ruby-bluecloth
current directory: /«PKGBUILDDIR»/ext
/usr/bin/ruby2.3 -r ./siteconf20160706-29329-1saoxca.rb extconf.rb
checking for srand()... yes
checking for random()... yes
checking for bzero() in string.h,strings.h... yes
checking for strcasecmp()... yes
checking for strncasecmp()... yes
checking for mkdio.h... yes
checking for main() in -lmarkdown... yes
checking for ruby/encoding.h... yes
creating extconf.h
creating Makefile
current directory: /«PKGBUILDDIR»/ext
make V=1 "DESTDIR=" clean
make[1]: Entering directory '/«PKGBUILDDIR»/ext'
rm -f 
rm -f bluecloth_ext.so  *.o  *.bak mkmf.log .*.time
make[1]: Leaving directory '/«PKGBUILDDIR»/ext'
current directory: /«PKGBUILDDIR»/ext
make V=1 "DESTDIR="
make[1]: Entering directory '/«PKGBUILDDIR»/ext'
gcc -I. -I/usr/include/x86_64-linux-gnu/ruby-2.3.0 -I/usr/include/ruby-2.3.0/ruby/backward -I/usr/include/ruby-2.3.0 -I. -DRUBY_EXTCONF_H=\"extconf.h\" -Wdate-time -D_FORTIFY_SOURCE=2   -DVERSION=\"2.0.9\" -fPIC -g -O2 -fstack-protector-strong -Wformat -Werror=format-security -fPIC -I.  -o bluecloth.o -c bluecloth.c
rm -f bluecloth_ext.so
gcc -shared -o bluecloth_ext.so bluecloth.o -L. -L/usr/lib/x86_64-linux-gnu -L. -Wl,-z,relro -Wl,-z,now -fstack-protector -rdynamic -Wl,-export-dynamic    -lruby-2.3 -lmarkdown  -lpthread -lgmp -ldl -lcrypt -lm   -lc
make[1]: Leaving directory '/«PKGBUILDDIR»/ext'
current directory: /«PKGBUILDDIR»/ext
make V=1 "DESTDIR=" install
make[1]: Entering directory '/«PKGBUILDDIR»/ext'
/bin/mkdir -p . ./.gem.20160706-29329-pcgzg5
exit > .RUBYARCHDIR.time
/usr/bin/install -c -m 0755 bluecloth_ext.so ./.gem.20160706-29329-pcgzg5
make[1]: Leaving directory '/«PKGBUILDDIR»/ext'
To see why this extension failed to compile, please check the mkmf.log which can be found here:
  /«PKGBUILDDIR»/debian/ruby-bluecloth/usr/lib/x86_64-linux-gnu/ruby/vendor_ruby/2.3.0/mkmf.log
rm -f /«PKGBUILDDIR»/debian/ruby-bluecloth/usr/lib/x86_64-linux-gnu/ruby/vendor_ruby/2.3.0/mkmf.log
Rewriting shebang line of /«PKGBUILDDIR»/debian/ruby-bluecloth/usr/bin/bluecloth

┌──────────────────────────────────────────────────────────────────────────────┐
│ Install Rubygems integration metadata                                        │
└──────────────────────────────────────────────────────────────────────────────┘

generating gemspec at /«PKGBUILDDIR»/debian/ruby-bluecloth/usr/share/rubygems-integration/2.3.0/specifications/bluecloth-2.2.0.gemspec
/usr/bin/ruby2.3 /usr/bin/gem2deb-test-runner

┌──────────────────────────────────────────────────────────────────────────────┐
│ Run tests for ruby2.3 from debian/ruby-tests.rb                              │
└──────────────────────────────────────────────────────────────────────────────┘

RUBYLIB=/«PKGBUILDDIR»/debian/ruby-bluecloth/usr/lib/x86_64-linux-gnu/ruby/vendor_ruby/2.3.0:/«PKGBUILDDIR»/debian/ruby-bluecloth/usr/lib/ruby/vendor_ruby:. GEM_PATH=debian/ruby-bluecloth/usr/share/rubygems-integration/2.3.0:/var/lib/gems/2.3.0:/usr/lib/x86_64-linux-gnu/rubygems-integration/2.3.0:/usr/share/rubygems-integration/2.3.0:/usr/share/rubygems-integration/all ruby2.3 debian/ruby-tests.rb
Run options: exclude {:pedantic=>true}

BlueCloth implementation of Discount-specific features
  pseudo-protocols
    renders abbr: links as <abbr> phrases
    renders id: links as anchors with an ID
    renders class: links as SPANs with a CLASS
    renders raw: links as-is with no syntax expansion
    renders lang: links as language-specified blocks
  Markdown-Extra tables
    doesn't try to render tables if :tables isn't set
    renders the example from orc's blog
    renders simple markdown-extra tables
  tilde strike-through
    doesn't render tilde-bracketed test when :strikethrough isn't set
    renders double tilde-bracketed text as strikethrough
    renders tilde-bracketed text for tilde-brackets of more than two tildes
    includes extra tildes in tilde-bracketed text
  definition lists
    (discount style)
      aren't rendered by default
      are rendered if the :definition_lists option is true
      supports multiple-term list items
    (markdown-extra style)
      aren't rendered by default
      are rendered if the :definition_lists option is true (FAILED - 1)
      are rendered if the :definition_lists option is true (FAILED - 2)
  footnotes
    aren't rendered by default
    are rendered if the :footnotes option is true
    renders a second link to the same footnote as plain text

BlueCloth bugfixes
  provides a workaround for the regexp-engine overflow bug
  provides a workaround for the second regexp-engine overflow bug
  correctly wraps <strong> tags around two characters enclosed in four asterisks
  correctly wraps <strong> tags around a single character enclosed in four asterisks
  correctly wraps <strong> tags around two characters enclosed in four underscores
  correctly wraps <strong> tags around a single character enclosed in four underscores
  correctly wraps <em> tags around two characters enclosed in two asterisks
  correctly wraps <em> tags around a single character enclosed in two asterisks
  correctly wraps <em> tags around two characters enclosed in four underscores
  correctly wraps <em> tags around a single character enclosed in four underscores
  doesn't raise an error when run with $VERBOSE = true
  doesn't hang when presented with a series of hyphens (rails-security DoS/#57)
  recognizes closing block tags even when they're not on their own line
  correctly wraps lines after a code block in a list item
  renders heading with trailing spaces correctly (#67)
  renders the example from #68 correctly
  renders alignments in code blocks without changing indentation (#71)

BlueCloth
  defines the top-level Markdown constant
  knows what version of Discount was used to build it (FAILED - 3)
  can build a flags bitmask out of an options hash
  handles non-string content safely
  inherits the taintedness of its input
  allows output to be rendered several times
  correctly applies the :remove_links option to the output
  correctly applies the :remove_images option to the output
  correctly applies the :smartypants option to the output
  correctly applies the :auto_links option to the output
  doesn't form links for protocols it doesn't know about under :safe_links mode
  forms links for protocols it doesn't know about when not under :safe_links mode
  Discount extensions
    correctly applies the :pandoc_headers option
    correctly expands id: links when :pseudoprotocols are enabled
    correctly expands class: links when :pseudoprotocols are enabled
    correctly expands raw: links when :pseudoprotocols are enabled
    correctly adds IDs to headers when :header_labels is enabled (FAILED - 4)
    expands superscripts only when :superscript is enabled
    uses relaxed emphasis when :relaxed is enabled
  email obfuscation
    obfuscates the email address "address@example.com"
    obfuscates the email address "foo-list-admin@bar.com"
    obfuscates the email address "fu@bar.COM"
    obfuscates the email address "baz@ruby-lang.org"
    obfuscates the email address "foo-tim-bazzle@bar-hop.co.uk"
    obfuscates the email address "littlestar@twinkle.twinkle.band.CO.ZA"
    obfuscates the email address "ll@lll.lllll.ll"
    obfuscates the email address "Ull@Ulll.Ulllll.ll"
    obfuscates the email address "UUUU1@UU1.UU1UUU.UU"
    obfuscates the email address "l@ll.ll"
    obfuscates the email address "Ull.Ullll@llll.ll"
    obfuscates the email address "Ulll-Ull.Ulllll@ll.ll"
    obfuscates the email address "1@111.ll"
  encoding under Ruby 1.9.x
    outputs HTML in UTF8 if given a UTF8 string
    outputs HTML in KOI8-U if given a KOI8-U string
    outputs HTML in Shift-JIS if given a Shift-JIS string

BlueCloth titles
  transforms Setext-style level-one headers (three equals) into an H1
  transforms Setext-style level-one headers (more than three equals) into an H1
  transforms Setext-style level-two headers (one dash) into an H2
  transforms Setext-style level-two headers (three dashes) into an H2
  transforms Setext-style level-two headers (more than three dashes) into an H2
  makes a header out of an ATX-style h1 -- Left side only
  makes a header out of an ATX-style h1 -- both sides
  makes a header out of an ATX-style h1 -- both sides, right side with three characters
  makes a header out of an ATX-style h1 -- both sides, right side with five characters
  makes a header out of an ATX-style h2 -- left side only
  makes a header out of an ATX-style h2 -- both sides
  makes a header out of an ATX-style h2 -- both sides, right side with three characters
  makes a header out of an ATX-style h2 -- both sides, right side with five characters
  makes a header out of an ATX-style h3 -- left side only
  makes a header out of an ATX-style h3 -- both sides, right side with one character
  makes a header out of an ATX-style h3 -- both sides, right side with three characters
  makes a header out of an ATX-style h3 -- both sides, right side with five characters
  makes a header out of an ATX-style h4 -- left side only
  makes a header out of an ATX-style h4 -- both sides, right side with one character
  makes a header out of an ATX-style h4 -- both sides, right side with three characters
  makes a header out of an ATX-style h4 -- both sides, right side with five characters
  makes a header out of an ATX-style h5 -- left side only
  makes a header out of an ATX-style h5 -- both sides, right side with one character
  makes a header out of an ATX-style h5 -- both sides, right side with three characters
  makes a header out of an ATX-style h5 -- both sides, right side with five characters
  makes a header out of an ATX-style h6 -- left side only
  makes a header out of an ATX-style h6 -- both sides, right side with one character
  makes a header out of an ATX-style h6 -- both sides, right side with three characters
  makes a header out of an ATX-style h6 -- both sides, right side with five characters

BlueCloth blockquotes
  wraps sections with an angle-bracket left margin in a blockquote
  supports nested blockquote sections
  supports nested blockquote sections even if there's only one multi-level section
  wraps sections preceded by an angle-bracket in a blockquote
  supports other Markdown elements in blockquote sections

BlueCloth document with entities
  escapes special characters
  preserves named entities
  preserves decimal-encoded entities
  preserves hex-encoded entities
  handles a mix of entities in code spans and not in code spans (issue #73)

BlueCloth links
  supports inline links
  supports inline link with a title
  supports reference-style links with no title
  supports indented (less than tabwidth) reference-style links
  supports reference-style links with quoted titles
  supports reference-style links with paren titles
  supports reference-style links with intervening spaces
  supports reference-style links with intervening spaces
  supports reference-style anchors
  supports implicit name-link shortcut anchors
  supports inline anchors
  fails gracefully for unclosed brackets (and bug #524)
  fails gracefully for unresolved reference-style links (Bug #620)

BlueCloth document with paragraphs
  wraps them in P tags
  transforms trailing double spaces to line breaks

BlueCloth auto-links
  supports HTTP auto-links
  supports FTP auto-link

BlueCloth horizontal rules
  produces a horizontal rule tag from three asterisks on a line by themselves
  produces a horizontal rule tag from three asterisks with intervening spaces on a line  by themselves
  produces a horizontal rule tag from three asterisks with intervening spaces on a line  by themselves, even if they're indented less than 4 spaces
  produces a horizontal rule tag from more than three asterisks on a line by themselves
  produces a horizontal rule tag from three dashes on a line by themselves
  produces a horizontal rule tag from three dashes with intervening spaces on a line  by themselves

BlueCloth that contains code blocks or spans
  wraps CODE tags around backticked spans
  allows you to place literal backtick characters at the beginning or end of a code span by padding the inner string with spaces
  wraps CODE tags around doubled backtick spans with a single literal backtick inside them
  correctly transforms two literal spans in one line
  correctly transforms literal spans at the beginning of a line
  encodes ampersands and angle brackets within code spans as HTML entities
  correctly transforms code spans at the beginning of paragraphs (bug #525)
  wraps sections indented with a literal tab in a code block
  wraps sections indented with at least 4 spaces in a code block
  removes one level of indentation (and no more) from code blocks

BlueCloth document with inline HTML
  preserves TABLE block
  preserves DIV block
  preserves HRs
  preserves fancy HRs
  preserves IFRAMEs
  preserves span-level HTML
  preserves block-level HTML case-insensitively
  preserves span-level HTML case-insensitively
  preserves HTML5 tags

BlueCloth after the 1.0.1 changes
  doesn't touch escapes in code blocks
  shouldn't touched escapes in code spans
  converts reference-style links at or deeper than tab width to code blocks
  fixes inline links using < and > URL delimiters, which weren't working
  keeps HTML comment blocks as-is
  doesn't auto-link inside code spans
  no longer creates a list when lines in the middle of hard-wrapped paragraphs look like the start of a list item
  correctly marks up header + list + code

BlueCloth images
  transforms inline images with a title in double quotes to an IMG tag
  transforms inline images with a title in single quotes to an IMG tag
  transforms inline images with a title that includes quotes to an IMG tag
  transforms inline images without a title to an IMG tag
  transforms inline images with quoted alt text to an IMG tag
  transforms image references with a title to an IMG tag

BlueCloth lists
  support unordered lists with asterisk bullets
  supports unordered lists with hyphen bullets
  supports unordered lists with '+' bullets
  supports unordered lists with mixed bullets
  supports ordered lists
  doesn't care what the actual numbers you use to mark up an unordered list are (all 1s)
  doesn't care what the actual numbers you use to mark up an unordered list are (random numbers)
  supports hanging indents
  supports lazy indents
  wraps the items in <p> tags if the list items are separated by blank lines
  supports multi-paragraph list items
  supports multi-paragraph list items followed by paragraph
  supports lazy multi-paragraphs
  supports blockquotes in list items
  supports code blocks in list items
  doesn't transform a backslash-escaped number-period-space into an ordered list

BlueCloth emphasis
  treats single asterisks as indicators of emphasis
  treats single underscores as indicators of emphasis
  treats double asterisks as strong emphasis
  treats double underscores as strong emphasis
  allows you to use both kinds of emphasis in a single span
  allows you to use both kinds of strong emphasis in a single span
  allows you to include literal asterisks by escaping them
  allows two instances of asterisked emphasis on one line
  allows two instances of double-asterisked emphasis on one line
  allows two instances of underscored emphasis on one line
  allows two instances of double-underscored emphasis on one line
  correctly emphasizes the first span of the text if it's emphasized with asterisks
  correctly emphasizes the first span of the text if it's emphasized with underscores
  correctly emphasizes the first span of the text if it's emphasized with double asterisks
  correctly emphasizes the first span of the text if it's emphasized with double underscores
  correctly emphasizes just a part of a word (bugfix for #568)

BlueCloth contributed features:
  Florian Gross's HTML filtering (backward-compatibility)
    can be configured with html filtering when created
    can be configured with html filtering (via an Array of options) when created
    can escape any existing HTML in the input if configured to do so
    doesn't raise an exception when filtering source with a lone closing angle bracket
    ignores a :filter_styles argument for RedCloth compatibility

BlueCloth -- MarkdownTest 1.0.3:
  Hard-wrapped paragraphs with list-like lines
  Markdown Documentation - Basics
  Strong and em together
  Inline HTML comments
  Links, inline style
  Backslash escapes
  Inline HTML (Simple)
  Amps and angle encoding
  Code Spans
  Ordered and unordered lists
  Auto links
  Code Blocks
  Tabs
  Links, reference style
  Horizontal rules
  Literal quotes in titles
  Markdown Documentation - Syntax
  Links, shortcut references
  Inline HTML (Advanced)
  Tidyness
  Blockquotes with code blocks
  Nested blockquotes

/usr/lib/ruby/vendor_ruby/rspec/core/source.rb:23:in `split': invalid byte sequence in US-ASCII (ArgumentError)
	from /usr/lib/ruby/vendor_ruby/rspec/core/source.rb:23:in `lines'
	from /usr/lib/ruby/vendor_ruby/rspec/core/formatters/snippet_extractor.rb:50:in `expression_lines'
	from /usr/lib/ruby/vendor_ruby/rspec/core/formatters/snippet_extractor.rb:33:in `extract_expression_lines_at'
	from /usr/lib/ruby/vendor_ruby/rspec/core/formatters/exception_presenter.rb:209:in `read_failed_lines'
	from /usr/lib/ruby/vendor_ruby/rspec/core/formatters/exception_presenter.rb:160:in `failure_slash_error_lines'
	from /usr/lib/ruby/vendor_ruby/rspec/core/formatters/exception_presenter.rb:147:in `block in failure_lines'
	from /usr/lib/ruby/vendor_ruby/rspec/core/formatters/exception_presenter.rb:146:in `tap'
	from /usr/lib/ruby/vendor_ruby/rspec/core/formatters/exception_presenter.rb:146:in `failure_lines'
	from /usr/lib/ruby/vendor_ruby/rspec/core/formatters/exception_presenter.rb:32:in `colorized_message_lines'
	from /usr/lib/ruby/vendor_ruby/rspec/core/formatters/exception_presenter.rb:231:in `formatted_message_and_backtrace'
	from /usr/lib/ruby/vendor_ruby/rspec/core/formatters/exception_presenter.rb:84:in `fully_formatted_lines'
	from /usr/lib/ruby/vendor_ruby/rspec/core/formatters/exception_presenter.rb:76:in `fully_formatted'
	from /usr/lib/ruby/vendor_ruby/rspec/core/notifications.rb:200:in `fully_formatted'
	from /usr/lib/ruby/vendor_ruby/rspec/core/notifications.rb:114:in `block in fully_formatted_failed_examples'
	from /usr/lib/ruby/vendor_ruby/rspec/core/notifications.rb:113:in `each'
	from /usr/lib/ruby/vendor_ruby/rspec/core/notifications.rb:113:in `each_with_index'
	from /usr/lib/ruby/vendor_ruby/rspec/core/notifications.rb:113:in `fully_formatted_failed_examples'
	from /usr/lib/ruby/vendor_ruby/rspec/core/formatters/base_text_formatter.rb:33:in `dump_failures'
	from /usr/lib/ruby/vendor_ruby/rspec/core/reporter.rb:189:in `block in notify'
	from /usr/lib/ruby/vendor_ruby/rspec/core/reporter.rb:188:in `each'
	from /usr/lib/ruby/vendor_ruby/rspec/core/reporter.rb:188:in `notify'
	from /usr/lib/ruby/vendor_ruby/rspec/core/reporter.rb:160:in `block in finish'
	from /usr/lib/ruby/vendor_ruby/rspec/core/reporter.rb:175:in `close_after'
	from /usr/lib/ruby/vendor_ruby/rspec/core/reporter.rb:156:in `finish'
	from /usr/lib/ruby/vendor_ruby/rspec/core/reporter.rb:79:in `report'
	from /usr/lib/ruby/vendor_ruby/rspec/core/runner.rb:117:in `run_specs'
	from /usr/lib/ruby/vendor_ruby/rspec/core/runner.rb:93:in `run'
	from /usr/lib/ruby/vendor_ruby/rspec/core/runner.rb:78:in `run'
	from /usr/lib/ruby/vendor_ruby/rspec/core/runner.rb:45:in `invoke'
	from /usr/lib/ruby/vendor_ruby/rspec/core/runner.rb:38:in `perform_at_exit'
	from /usr/lib/ruby/vendor_ruby/rspec/core/runner.rb:24:in `block in autorun'
ERROR: Test "ruby2.3" failed. Exiting.
dh_auto_install: dh_ruby --install /«PKGBUILDDIR»/debian/ruby-bluecloth returned exit code 1
make: *** [binary] Error 1
debian/rules:18: recipe for target 'binary' failed
dpkg-buildpackage: error: fakeroot debian/rules binary gave error exit status 2
────────────────────────────────────────────────────────────────────────────────
Build finished at 20160706-2129

Finished
────────

E: Build failure (dpkg-buildpackage died)

┌──────────────────────────────────────────────────────────────────────────────┐
│ Cleanup                                                                      │
└──────────────────────────────────────────────────────────────────────────────┘

Purging /«BUILDDIR»
Not cleaning session: cloned chroot in use

┌──────────────────────────────────────────────────────────────────────────────┐
│ Summary                                                                      │
└──────────────────────────────────────────────────────────────────────────────┘

Build Architecture: amd64
Build-Space: 1128
Build-Time: 3
Distribution: unstable
Fail-Stage: build
Host Architecture: amd64
Install-Time: 18
Job: ruby-bluecloth_2.2.0-6
Machine Architecture: amd64
Package: ruby-bluecloth
Package-Time: 31
Source-Version: 2.2.0-6
Space: 1128
Status: attempted
Version: 2.2.0-6
────────────────────────────────────────────────────────────────────────────────
Finished at 20160706-2129
Build needed 00:00:31, 1128k disc space
DC-Status: Failed 31.222647763s
